{
    "total_count": 6870,
    "incomplete_results": false,
    "items": [
              {
              "id": 1,
              "name": "EHAB",
              "full_name": "MetalKit/metal",
              "owner": {
              "login": "MetalKit",
              "id": 18489752,
              "avatar_url": "https://avatars2.githubusercontent.com/u/18489752?v=4",
              "gravatar_id": "",
              "url": "https://api.github.com/users/MetalKit",
              "html_url": "https://github.com/MetalKit",
              "followers_url": "https://api.github.com/users/MetalKit/followers",
              "following_url": "https://api.github.com/users/MetalKit/following{/other_user}",
              "gists_url": "https://api.github.com/users/MetalKit/gists{/gist_id}",
              "starred_url": "https://api.github.com/users/MetalKit/starred{/owner}{/repo}",
              "subscriptions_url": "https://api.github.com/users/MetalKit/subscriptions",
              "organizations_url": "https://api.github.com/users/MetalKit/orgs",
              "repos_url": "https://api.github.com/users/MetalKit/repos",
              "events_url": "https://api.github.com/users/MetalKit/events{/privacy}",
              "received_events_url": "https://api.github.com/users/MetalKit/received_events",
              "type": "Organization",
              "site_admin": false
              },
              "private": false,
              "html_url": "https://github.com/MetalKit/metal",
              "description": null,
              "fork": false,
              "url": "https://api.github.com/repos/MetalKit/metal",
              "forks_url": "https://api.github.com/repos/MetalKit/metal/forks",
              "keys_url": "https://api.github.com/repos/MetalKit/metal/keys{/key_id}",
              "collaborators_url": "https://api.github.com/repos/MetalKit/metal/collaborators{/collaborator}",
              "teams_url": "https://api.github.com/repos/MetalKit/metal/teams",
              "hooks_url": "https://api.github.com/repos/MetalKit/metal/hooks",
              "issue_events_url": "https://api.github.com/repos/MetalKit/metal/issues/events{/number}",
              "events_url": "https://api.github.com/repos/MetalKit/metal/events",
              "assignees_url": "https://api.github.com/repos/MetalKit/metal/assignees{/user}",
              "branches_url": "https://api.github.com/repos/MetalKit/metal/branches{/branch}",
              "tags_url": "https://api.github.com/repos/MetalKit/metal/tags",
              "blobs_url": "https://api.github.com/repos/MetalKit/metal/git/blobs{/sha}",
              "git_tags_url": "https://api.github.com/repos/MetalKit/metal/git/tags{/sha}",
              "git_refs_url": "https://api.github.com/repos/MetalKit/metal/git/refs{/sha}",
              "trees_url": "https://api.github.com/repos/MetalKit/metal/git/trees{/sha}",
              "statuses_url": "https://api.github.com/repos/MetalKit/metal/statuses/{sha}",
              "languages_url": "https://api.github.com/repos/MetalKit/metal/languages",
              "stargazers_url": "https://api.github.com/repos/MetalKit/metal/stargazers",
              "contributors_url": "https://api.github.com/repos/MetalKit/metal/contributors",
              "subscribers_url": "https://api.github.com/repos/MetalKit/metal/subscribers",
              "subscription_url": "https://api.github.com/repos/MetalKit/metal/subscription",
              "commits_url": "https://api.github.com/repos/MetalKit/metal/commits{/sha}",
              "git_commits_url": "https://api.github.com/repos/MetalKit/metal/git/commits{/sha}",
              "comments_url": "https://api.github.com/repos/MetalKit/metal/comments{/number}",
              "issue_comment_url": "https://api.github.com/repos/MetalKit/metal/issues/comments{/number}",
              "contents_url": "https://api.github.com/repos/MetalKit/metal/contents/{+path}",
              "compare_url": "https://api.github.com/repos/MetalKit/metal/compare/{base}...{head}",
              "merges_url": "https://api.github.com/repos/MetalKit/metal/merges",
              "archive_url": "https://api.github.com/repos/MetalKit/metal/{archive_format}{/ref}",
              "downloads_url": "https://api.github.com/repos/MetalKit/metal/downloads",
              "issues_url": "https://api.github.com/repos/MetalKit/metal/issues{/number}",
              "pulls_url": "https://api.github.com/repos/MetalKit/metal/pulls{/number}",
              "milestones_url": "https://api.github.com/repos/MetalKit/metal/milestones{/number}",
              "notifications_url": "https://api.github.com/repos/MetalKit/metal/notifications{?since,all,participating}",
              "labels_url": "https://api.github.com/repos/MetalKit/metal/labels{/name}",
              "releases_url": "https://api.github.com/repos/MetalKit/metal/releases{/id}",
              "deployments_url": "https://api.github.com/repos/MetalKit/metal/deployments",
              "created_at": "2016-05-25T10:34:59Z",
              "updated_at": "2017-11-29T08:17:11Z",
              "pushed_at": "2017-11-01T04:18:30Z",
              "git_url": "git://github.com/MetalKit/metal.git",
              "ssh_url": "git@github.com:MetalKit/metal.git",
              "clone_url": "https://github.com/MetalKit/metal.git",
              "svn_url": "https://github.com/MetalKit/metal",
              "homepage": null,
              "size": 1783,
              "stargazers_count": 171,
              "watchers_count": 171,
              "language": "Swift",
              "has_issues": true,
              "has_projects": true,
              "has_downloads": true,
              "has_wiki": true,
              "has_pages": false,
              "forks_count": 32,
              "mirror_url": null,
              "archived": false,
              "open_issues_count": 3,
              "license": null,
              "forks": 32,
              "open_issues": 3,
              "watchers": 171,
              "default_branch": "master",
              "score": 89.41789
              },
              {
              "id": 31686207,
              "name": "metal",
              "full_name": "brunocodutra/metal",
              "owner": {
              "login": "brunocodutra",
              "id": 4043663,
              "avatar_url": "https://avatars1.githubusercontent.com/u/4043663?v=4",
              "gravatar_id": "",
              "url": "https://api.github.com/users/brunocodutra",
              "html_url": "https://github.com/brunocodutra",
              "followers_url": "https://api.github.com/users/brunocodutra/followers",
              "following_url": "https://api.github.com/users/brunocodutra/following{/other_user}",
              "gists_url": "https://api.github.com/users/brunocodutra/gists{/gist_id}",
              "starred_url": "https://api.github.com/users/brunocodutra/starred{/owner}{/repo}",
              "subscriptions_url": "https://api.github.com/users/brunocodutra/subscriptions",
              "organizations_url": "https://api.github.com/users/brunocodutra/orgs",
              "repos_url": "https://api.github.com/users/brunocodutra/repos",
              "events_url": "https://api.github.com/users/brunocodutra/events{/privacy}",
              "received_events_url": "https://api.github.com/users/brunocodutra/received_events",
              "type": "User",
              "site_admin": false
              },
              "private": false,
              "html_url": "https://github.com/brunocodutra/metal",
              "description": "Love template metaprogramming",
              "fork": false,
              "url": "https://api.github.com/repos/brunocodutra/metal",
              "forks_url": "https://api.github.com/repos/brunocodutra/metal/forks",
              "keys_url": "https://api.github.com/repos/brunocodutra/metal/keys{/key_id}",
              "collaborators_url": "https://api.github.com/repos/brunocodutra/metal/collaborators{/collaborator}",
              "teams_url": "https://api.github.com/repos/brunocodutra/metal/teams",
              "hooks_url": "https://api.github.com/repos/brunocodutra/metal/hooks",
              "issue_events_url": "https://api.github.com/repos/brunocodutra/metal/issues/events{/number}",
              "events_url": "https://api.github.com/repos/brunocodutra/metal/events",
              "assignees_url": "https://api.github.com/repos/brunocodutra/metal/assignees{/user}",
              "branches_url": "https://api.github.com/repos/brunocodutra/metal/branches{/branch}",
              "tags_url": "https://api.github.com/repos/brunocodutra/metal/tags",
              "blobs_url": "https://api.github.com/repos/brunocodutra/metal/git/blobs{/sha}",
              "git_tags_url": "https://api.github.com/repos/brunocodutra/metal/git/tags{/sha}",
              "git_refs_url": "https://api.github.com/repos/brunocodutra/metal/git/refs{/sha}",
              "trees_url": "https://api.github.com/repos/brunocodutra/metal/git/trees{/sha}",
              "statuses_url": "https://api.github.com/repos/brunocodutra/metal/statuses/{sha}",
              "languages_url": "https://api.github.com/repos/brunocodutra/metal/languages",
              "stargazers_url": "https://api.github.com/repos/brunocodutra/metal/stargazers",
              "contributors_url": "https://api.github.com/repos/brunocodutra/metal/contributors",
              "subscribers_url": "https://api.github.com/repos/brunocodutra/metal/subscribers",
              "subscription_url": "https://api.github.com/repos/brunocodutra/metal/subscription",
              "commits_url": "https://api.github.com/repos/brunocodutra/metal/commits{/sha}",
              "git_commits_url": "https://api.github.com/repos/brunocodutra/metal/git/commits{/sha}",
              "comments_url": "https://api.github.com/repos/brunocodutra/metal/comments{/number}",
              "issue_comment_url": "https://api.github.com/repos/brunocodutra/metal/issues/comments{/number}",
              "contents_url": "https://api.github.com/repos/brunocodutra/metal/contents/{+path}",
              "compare_url": "https://api.github.com/repos/brunocodutra/metal/compare/{base}...{head}",
              "merges_url": "https://api.github.com/repos/brunocodutra/metal/merges",
              "archive_url": "https://api.github.com/repos/brunocodutra/metal/{archive_format}{/ref}",
              "downloads_url": "https://api.github.com/repos/brunocodutra/metal/downloads",
              "issues_url": "https://api.github.com/repos/brunocodutra/metal/issues{/number}",
              "pulls_url": "https://api.github.com/repos/brunocodutra/metal/pulls{/number}",
              "milestones_url": "https://api.github.com/repos/brunocodutra/metal/milestones{/number}",
              "notifications_url": "https://api.github.com/repos/brunocodutra/metal/notifications{?since,all,participating}",
              "labels_url": "https://api.github.com/repos/brunocodutra/metal/labels{/name}",
              "releases_url": "https://api.github.com/repos/brunocodutra/metal/releases{/id}",
              "deployments_url": "https://api.github.com/repos/brunocodutra/metal/deployments",
              "created_at": "2015-03-04T23:47:59Z",
              "updated_at": "2017-11-23T06:55:51Z",
              "pushed_at": "2017-11-23T19:47:31Z",
              "git_url": "git://github.com/brunocodutra/metal.git",
              "ssh_url": "git@github.com:brunocodutra/metal.git",
              "clone_url": "https://github.com/brunocodutra/metal.git",
              "svn_url": "https://github.com/brunocodutra/metal",
              "homepage": "http://brunocodutra.github.io/metal/",
              "size": 3115,
              "stargazers_count": 134,
              "watchers_count": 134,
              "language": "C++",
              "has_issues": true,
              "has_projects": true,
              "has_downloads": true,
              "has_wiki": false,
              "has_pages": true,
              "forks_count": 7,
              "mirror_url": null,
              "archived": false,
              "open_issues_count": 5,
              "license": {
              "key": "bsl-1.0",
              "name": "Boost Software License 1.0",
              "spdx_id": "BSL-1.0",
              "url": "https://api.github.com/licenses/bsl-1.0"
              },
              "forks": 7,
              "open_issues": 5,
              "watchers": 134,
              "default_branch": "master",
              "score": 65.92088
              }
              ]
}
